{
  "appId": "org.capacitor.quasar.app",
  "appName": "Postes RFID",
  "bundledWebRuntime": false,
  "npmClient": "npm",
  "webDir": "www",
  "server": {
    "androidScheme": "https",
    "url": "https://192.168.0.24:9500"
  }
}